%YAML 1.1
%TAG !u! tag:unity3d.com,2011:
--- !u!1045 &1
EditorBuildSettings:
  m_ObjectHideFlags: 0
  serializedVersion: 2
  m_Scenes:
  - enabled: 1
    path: Assets/Scenes/MenuPrincipal.unity
    guid: 276c969fc3459914ea6fc54245b9ff11
  - enabled: 1
    path: Assets/Scenes/Level_02.unity
    guid: ac51784162bc36840bfa2155fb330d90
  m_configObjects: {}
